Outline of eDiscovery paper
…
n1_text <- n_enron %>% filter(f_cluster == 1) %>% select(payload)
n2_text <- n_enron %>% filter(f_cluster == 2) %>% select(payload)
n3_text <- n_enron %>% filter(f_cluster == 3) %>% select(payload)
n1_words <- n1_text %>% unnest_tokens(word, payload)
n2_words <- n2_text %>% unnest_tokens(word, payload)
n3_words <- n3_text %>% unnest_tokens(word, payload)

Cluster 1 has the most words, 94013, followed by Cluster 3 with 44366 and Cluster 2 with 38956.

Superficially, there is little difference among the clusters with respect to their ten most frequent words.

n1_words %>% count(word, sort = TRUE)

## # A tibble: 8,687 x 2
##    word      n
##    <chr> <int>
##  1 the    3164
##  2 to     2707
##  3 i      1902
##  4 you    1744
##  5 ect    1521
##  6 a      1416
##  7 and    1363
##  8 for    1038
##  9 is     1026
## 10 of     1003
## #  with 8,677 more rows

n2_words %>% count(word, sort = TRUE)

## # A tibble: 5,537 x 2
##    word      n
##    <chr> <int>
##  1 the    1457
##  2 to     1285
##  3 i      1245
##  4 you    1011
##  5 and     804
##  6 a       669
##  7 that    553
##  8 of      552
##  9 in      497
## 10 for     470
## #  with 5,527 more rows

n3_words %>% count(word, sort = TRUE)

## # A tibble: 4,680 x 2
##    word       n
##    <chr>  <int>
##  1 the     1638
##  2 to      1372
##  3 i        975
##  4 you      903
##  5 thanks   879
##  6 and      732
##  7 for      680
##  8 this     623
##  9 on       605
## 10 kim      603
## #  with 4,670 more rows
…
n2_words <- n2_text %>%
            unnest_tokens(word, payload) %>% 
            anti_join(stop_words) %>% 
            filter(word != str_match_all(word,"^\\d+"))

n3_words <- n3_text %>%
            unnest_tokens(word, payload) %>% 
            anti_join(stop_words) %>% 
            filter(word != str_match_all(word,"^\\d+"))

n1_words %>% count(word, sort = TRUE) %>% print(n = 50)

## # A tibble: 7,364 x 2
##    word           n
##    <chr>      <int>
##  1 enron        976
##  2 john         578
##  3 not          485
##  4 cc           390
##  5 subject      390
##  6 errol        309
##  7 arnold       281
##  8 pm           227
##  9 gas          225
## 10 all          209
## 11 corp         198
## 12 deals        188
## 13 time         182
## 14 deal         177
## 15 day          165
## 16 good         165
## 17 call         151
## 18 book         136
## 19 trading      134
## 20 price        126
## 21 eol          123
## 22 dutch        121
## 23 offset       114
## 24 ng           110
## 25 mclaughlin   107
## 26 trade        107
## 27 week         102
## 28 spread       101
## 29 dg            95
## 30 nymex         95
## 31 market        94
## 32 morning       88
## 33 dq            87
## 34 talk          85
## 35 im            81
## 36 friday        80
## 37 value         79
## 38 might         78
## 39 tomorrow      77
## 40 night         76
## 41 send          76
## 42 buy           75
## 43 fraser        75
## 44 energy        74
## 45 people        74
## 46 darron        73
## 47 love          71
## 48 jennifer      67
## 49 options       67
## 50 daily         66
## #  with 7,314 more rows

n2_words %>% count(word, sort = TRUE) %>% print(n = 25)

## # A tibble: 4,732 x 2
##    word          n
##    <chr>     <int>
##  1 not         247
##  2 enron       230
##  3 all         130
##  4 time         93
##  5 call         71
##  6 deal         69
##  7 ken          63
##  8 dg           57
##  9 good         56
## 10 company      49
## 11 day          46
## 12 can't        44
## 13 business     42
## 14 deals        39
## 15 great        38
## 16 people       38
## 17 meeting      35
## 18 working      34
## 19 questions    33
## 20 week         33
## 21 hope         32
## 22 employees    31
## 23 don          30
## 24 gas          30
## 25 talk         30
## #  with 4,707 more rows

n3_words %>% count(word, sort = TRUE) %>% print(n = 25)

## # A tibble: 3,931 x 2
##    word        n
##    <chr>   <int>
##  1 kim       603
##  2 lynn      522
##  3 enron     414
##  4 fyi       204
##  5 meeting   194
##  6 not       179
##  7 ava       126
##  8 tw        115
##  9 all       103
## 10 gas        96
## 11 time       96
## 12 john       95
## 13 steve      91
## 14 call       87
## 15 week       80
## 16 audrey     75
## 17 day        72
## 18 discuss    68
## 19 office     65
## 20 team       62
## 21 good       61
## 22 terry      60
## 23 send       57
## 24 morning    55
## 25 nng        55
## #  with 3,906 more rows
…
